Take Home Exercise 1 (Part 2) – ISSS608-VAA
…
pop_data <- subset(pop_data, !(SZ %in% subzones_to_exclude))
colnames(pop_data) <- c('PA','Subzone','Age','Sex','Population')

pop_data$Age[pop_data$Age == "90_and_Over"] <- "90"

pop_data<- pop_data %>%
  mutate(Age = as.numeric(Age))

pop_data

# A tibble: 34,580 × 5
   PA         Subzone                  Age Sex     Population
   <chr>      <chr>                  <dbl> <chr>        <dbl>
 1 Ang Mo Kio Ang Mo Kio Town Centre     0 Males           10
 2 Ang Mo Kio Ang Mo Kio Town Centre     0 Females         10
 3 Ang Mo Kio Ang Mo Kio Town Centre     1 Males           10
 4 Ang Mo Kio Ang Mo Kio Town Centre     1 Females         10
 5 Ang Mo Kio Ang Mo Kio Town Centre     2 Males           10
 6 Ang Mo Kio Ang Mo Kio Town Centre     2 Females         10
 7 Ang Mo Kio Ang Mo Kio Town Centre     3 Males           10
 8 Ang Mo Kio Ang Mo Kio Town Centre     3 Females         10
 9 Ang Mo Kio Ang Mo Kio Town Centre     4 Males           30
10 Ang Mo Kio Ang Mo Kio Town Centre     4 Females         10
# ℹ 34,570 more rows
…
