Take_Home_2 - Mini case 1 – ISSS608-VAA
…
genre_edge_summary <- influenced_with_genre %>%
  count(genre, `Edge Type`, name = "influence_count") %>%
  arrange(desc(influence_count))

genre_edge_wide <- genre_edge_summary %>%
  pivot_wider(
    names_from = `Edge Type`,
    values_from = influence_count,
    values_fill = 0  # fill missing combinations with 0
  )

genre_edge_wide

# A tibble: 21 × 6
   genre   InStyleOf InterpolatesFrom CoverOf LyricalReferenceTo DirectlySamples
   <chr>       <int>            <int>   <int>              <int>           <int>
 1 Oceanu…        38               23      21                 14               9
 2 Indie …        18               10      11                 15               7
 3 Dream …         4                2       5                  0               2
 4 Desert…         4                2       2                  1               0
 5 Synthp…         0                4       2                  1               1
 6 Synthw…         4                1       3                  1               0
 7 Americ…         0                3       1                  1               0
 8 Doom M…         3                1       2                  2               2
 9 Indie …         3                2       1                  1               1
10 Psyche…         3                1       2                  3               1
# ℹ 11 more rows
…
